This file contains any messages produced by compilers while
running configure, to aid debugging if configure makes a mistake.

It was created by ESPRESSO configure 5.2.0, which was
generated by GNU Autoconf 2.63.  Invocation command line was

  $ ./install/configure --enable-parallel --enable-openmp FC=ifort MPIF90=mpiifort

## --------- ##
## Platform. ##
## --------- ##

hostname = deneb1
uname -m = x86_64
uname -r = 2.6.32-431.23.3.el6.x86_64
uname -s = Linux
uname -v = #1 SMP Thu Jul 31 17:20:51 UTC 2014

/usr/bin/uname -p = unknown
/bin/uname -X     = unknown

/bin/arch              = x86_64
/usr/bin/arch -k       = unknown
/usr/convex/getsysinfo = unknown
/usr/bin/hostinfo      = unknown
/bin/machine           = unknown
/usr/bin/oslevel       = unknown
/bin/universe          = unknown

PATH: /ssoft/intelmpi/5.0.1/RH6/all/x86_E5v2/impi/5.0.1.035/bin64/
PATH: /ssoft/intel/15.0.0/RH6/all/x86_E5v2/composer_xe_2015.2.164/bin/intel64
PATH: /usr/local/bin
PATH: /bin
PATH: /usr/bin
PATH: /usr/local/sbin
PATH: /usr/sbin
PATH: /sbin
PATH: /usr/lpp/mmfs/bin
PATH: /sbin
PATH: /usr/sbin
PATH: /home/nvarini/bin


## ----------- ##
## Core tests. ##
## ----------- ##

configure:2125: checking build system type
configure:2143: result: x86_64-unknown-linux-gnu
configure:2420: checking for Fortran compiler version
configure:2428: ifort --version >&5
ifort (IFORT) 15.0.2 20150121
Copyright (C) 1985-2015 Intel Corporation.  All rights reserved.

configure:2432: $? = 0
configure:2439: ifort -v >&5
ifort version 15.0.2
configure:2443: $? = 0
configure:2450: ifort -V >&5
Intel(R) Fortran Intel(R) 64 Compiler XE for applications running on Intel(R) 64, Version 15.0.2.164 Build 20150121
Copyright (C) 1985-2015 Intel Corporation.  All rights reserved.

configure:2454: $? = 0
configure:2468: checking for Fortran compiler default output file name
configure:2490: ifort    conftest.f  >&5
configure:2494: $? = 0
configure:2532: result: a.out
configure:2551: checking whether the Fortran compiler works
configure:2584: result: yes
configure:2591: checking whether we are cross compiling
configure:2593: result: yes
configure:2596: checking for suffix of executables
configure:2603: ifort -o conftest    conftest.f  >&5
configure:2607: $? = 0
configure:2633: result: 
configure:2639: checking for suffix of object files
configure:2655: ifort -c   conftest.f >&5
configure:2659: $? = 0
configure:2684: result: o
configure:2692: checking whether we are using the GNU Fortran compiler
configure:2711: ifort -c   conftest.F >&5
conftest.F(3): error #5082: Syntax error, found END-OF-STATEMENT when expecting one of: ( % [ : . = =>
       choke me
---------------^
conftest.F(3): error #6218: This statement is positioned incorrectly and/or has syntax errors.
       choke me
---------------^
compilation aborted for conftest.F (code 1)
configure:2718: $? = 1
configure: failed program was:
|       program main
| #ifndef __GNUC__
|        choke me
| #endif
| 
|       end
configure:2735: result: no
configure:2741: checking whether ifort accepts -g
configure:2758: ifort -c -g  conftest.f >&5
configure:2765: $? = 0
configure:2781: result: yes
configure:2811: checking for Fortran flag to compile .f90 files
configure:2833: ifort -c -g  conftest.f90 >&5
configure:2840: $? = 0
configure:2859: result: none
configure:3208: checking for mpiifort
configure:3224: found /ssoft/intelmpi/5.0.1/RH6/all/x86_E5v2/impi/5.0.1.035/bin64//mpiifort
configure:3235: result: mpiifort
configure:3251: WARNING: using cross tools not prefixed with host triplet
configure:3261: checking for Fortran compiler version
configure:3269: mpiifort --version >&5
ifort (IFORT) 15.0.2 20150121
Copyright (C) 1985-2015 Intel Corporation.  All rights reserved.

configure:3273: $? = 0
configure:3280: mpiifort -v >&5
mpiifort for the Intel(R) MPI Library 5.0 Update 1 for Linux*
Copyright(C) 2003-2014, Intel Corporation.  All rights reserved.
ifort version 15.0.2
configure:3284: $? = 0
configure:3291: mpiifort -V >&5
Intel(R) Fortran Intel(R) 64 Compiler XE for applications running on Intel(R) 64, Version 15.0.2.164 Build 20150121
Copyright (C) 1985-2015 Intel Corporation.  All rights reserved.

configure:3295: $? = 0
configure:3303: checking whether we are using the GNU Fortran compiler
configure:3322: mpiifort -c -g  conftest.F >&5
conftest.F(3): error #5082: Syntax error, found END-OF-STATEMENT when expecting one of: ( % [ : . = =>
       choke me
---------------^
conftest.F(3): error #6218: This statement is positioned incorrectly and/or has syntax errors.
       choke me
---------------^
compilation aborted for conftest.F (code 1)
configure:3329: $? = 1
configure: failed program was:
|       program main
| #ifndef __GNUC__
|        choke me
| #endif
| 
|       end
configure:3346: result: no
configure:3352: checking whether mpiifort accepts -g
configure:3369: mpiifort -c -g  conftest.f90 >&5
configure:3376: $? = 0
configure:3392: result: yes
configure:3669: checking for icc
configure:3685: found /ssoft/intel/15.0.0/RH6/all/x86_E5v2/composer_xe_2015.2.164/bin/intel64/icc
configure:3696: result: icc
configure:3730: checking for C compiler version
configure:3738: icc --version >&5
icc (ICC) 15.0.2 20150121
Copyright (C) 1985-2015 Intel Corporation.  All rights reserved.

configure:3742: $? = 0
configure:3749: icc -v >&5
icc version 15.0.2 (gcc version 4.4.7 compatibility)
configure:3753: $? = 0
configure:3760: icc -V >&5
Intel(R) C Intel(R) 64 Compiler XE for applications running on Intel(R) 64, Version 15.0.2.164 Build 20150121
Copyright (C) 1985-2015 Intel Corporation.  All rights reserved.

configure:3764: $? = 0
configure:3767: checking whether we are using the GNU C compiler
configure:3796: icc -c   conftest.c >&5
configure:3803: $? = 0
configure:3820: result: yes
configure:3829: checking whether icc accepts -g
configure:3859: icc -c -g  conftest.c >&5
configure:3866: $? = 0
configure:3967: result: yes
configure:3984: checking for icc option to accept ISO C89
configure:4058: icc  -c -g -O2  conftest.c >&5
configure:4065: $? = 0
configure:4088: result: none needed
configure:4119: checking how to run the C preprocessor
configure:4159: icc -E  conftest.c
configure:4166: $? = 0
configure:4197: icc -E  conftest.c
conftest.c(8): error #2379: cannot open source file "ac_nonexistent.h"
  #include <ac_nonexistent.h>
                             ^

configure:4204: $? = 2
configure: failed program was:
| /* confdefs.h.  */
| #define PACKAGE_NAME "ESPRESSO"
| #define PACKAGE_TARNAME "espresso"
| #define PACKAGE_VERSION "5.2.0"
| #define PACKAGE_STRING "ESPRESSO 5.2.0"
| #define PACKAGE_BUGREPORT ""
| /* end confdefs.h.  */
| #include <ac_nonexistent.h>
configure:4237: result: icc -E
configure:4266: icc -E  conftest.c
configure:4273: $? = 0
configure:4304: icc -E  conftest.c
conftest.c(8): error #2379: cannot open source file "ac_nonexistent.h"
  #include <ac_nonexistent.h>
                             ^

configure:4311: $? = 2
configure: failed program was:
| /* confdefs.h.  */
| #define PACKAGE_NAME "ESPRESSO"
| #define PACKAGE_TARNAME "espresso"
| #define PACKAGE_VERSION "5.2.0"
| #define PACKAGE_STRING "ESPRESSO 5.2.0"
| #define PACKAGE_BUGREPORT ""
| /* end confdefs.h.  */
| #include <ac_nonexistent.h>
configure:4351: checking for grep that handles long lines and -e
configure:4411: result: /bin/grep
configure:4416: checking for egrep
configure:4480: result: /bin/grep -E
configure:4485: checking for ANSI C header files
configure:4515: icc -c -g -O2  conftest.c >&5
configure:4522: $? = 0
configure:4653: result: yes
configure:4677: checking for sys/types.h
configure:4698: icc -c -g -O2  conftest.c >&5
configure:4705: $? = 0
configure:4722: result: yes
configure:4677: checking for sys/stat.h
configure:4698: icc -c -g -O2  conftest.c >&5
configure:4705: $? = 0
configure:4722: result: yes
configure:4677: checking for stdlib.h
configure:4698: icc -c -g -O2  conftest.c >&5
configure:4705: $? = 0
configure:4722: result: yes
configure:4677: checking for string.h
configure:4698: icc -c -g -O2  conftest.c >&5
configure:4705: $? = 0
configure:4722: result: yes
configure:4677: checking for memory.h
configure:4698: icc -c -g -O2  conftest.c >&5
configure:4705: $? = 0
configure:4722: result: yes
configure:4677: checking for strings.h
configure:4698: icc -c -g -O2  conftest.c >&5
configure:4705: $? = 0
configure:4722: result: yes
configure:4677: checking for inttypes.h
configure:4698: icc -c -g -O2  conftest.c >&5
configure:4705: $? = 0
configure:4722: result: yes
configure:4677: checking for stdint.h
configure:4698: icc -c -g -O2  conftest.c >&5
configure:4705: $? = 0
configure:4722: result: yes
configure:4677: checking for unistd.h
configure:4698: icc -c -g -O2  conftest.c >&5
configure:4705: $? = 0
configure:4722: result: yes
configure:4740: checking size of int *
configure:4770: icc -c -g -O2  conftest.c >&5
configure:4777: $? = 0
configure:4807: icc -c -g -O2  conftest.c >&5
conftest.c(54): error: the size of an array must be greater than zero
  static int test_array [1 - 2 * !(((long int) (sizeof (int *))) <= 0)];
                         ^

compilation aborted for conftest.c (code 2)
configure:4814: $? = 2
configure: failed program was:
| /* confdefs.h.  */
| #define PACKAGE_NAME "ESPRESSO"
| #define PACKAGE_TARNAME "espresso"
| #define PACKAGE_VERSION "5.2.0"
| #define PACKAGE_STRING "ESPRESSO 5.2.0"
| #define PACKAGE_BUGREPORT ""
| #define STDC_HEADERS 1
| #define HAVE_SYS_TYPES_H 1
| #define HAVE_SYS_STAT_H 1
| #define HAVE_STDLIB_H 1
| #define HAVE_STRING_H 1
| #define HAVE_MEMORY_H 1
| #define HAVE_STRINGS_H 1
| #define HAVE_INTTYPES_H 1
| #define HAVE_STDINT_H 1
| #define HAVE_UNISTD_H 1
| /* end confdefs.h.  */
| #include <stdio.h>
| #ifdef HAVE_SYS_TYPES_H
| # include <sys/types.h>
| #endif
| #ifdef HAVE_SYS_STAT_H
| # include <sys/stat.h>
| #endif
| #ifdef STDC_HEADERS
| # include <stdlib.h>
| # include <stddef.h>
| #else
| # ifdef HAVE_STDLIB_H
| #  include <stdlib.h>
| # endif
| #endif
| #ifdef HAVE_STRING_H
| # if !defined STDC_HEADERS && defined HAVE_MEMORY_H
| #  include <memory.h>
| # endif
| # include <string.h>
| #endif
| #ifdef HAVE_STRINGS_H
| # include <strings.h>
| #endif
| #ifdef HAVE_INTTYPES_H
| # include <inttypes.h>
| #endif
| #ifdef HAVE_STDINT_H
| # include <stdint.h>
| #endif
| #ifdef HAVE_UNISTD_H
| # include <unistd.h>
| #endif
| int
| main ()
| {
| static int test_array [1 - 2 * !(((long int) (sizeof (int *))) <= 0)];
| test_array [0] = 0
| 
|   ;
|   return 0;
| }
configure:4807: icc -c -g -O2  conftest.c >&5
conftest.c(54): error: the size of an array must be greater than zero
  static int test_array [1 - 2 * !(((long int) (sizeof (int *))) <= 1)];
                         ^

compilation aborted for conftest.c (code 2)
configure:4814: $? = 2
configure: failed program was:
| /* confdefs.h.  */
| #define PACKAGE_NAME "ESPRESSO"
| #define PACKAGE_TARNAME "espresso"
| #define PACKAGE_VERSION "5.2.0"
| #define PACKAGE_STRING "ESPRESSO 5.2.0"
| #define PACKAGE_BUGREPORT ""
| #define STDC_HEADERS 1
| #define HAVE_SYS_TYPES_H 1
| #define HAVE_SYS_STAT_H 1
| #define HAVE_STDLIB_H 1
| #define HAVE_STRING_H 1
| #define HAVE_MEMORY_H 1
| #define HAVE_STRINGS_H 1
| #define HAVE_INTTYPES_H 1
| #define HAVE_STDINT_H 1
| #define HAVE_UNISTD_H 1
| /* end confdefs.h.  */
| #include <stdio.h>
| #ifdef HAVE_SYS_TYPES_H
| # include <sys/types.h>
| #endif
| #ifdef HAVE_SYS_STAT_H
| # include <sys/stat.h>
| #endif
| #ifdef STDC_HEADERS
| # include <stdlib.h>
| # include <stddef.h>
| #else
| # ifdef HAVE_STDLIB_H
| #  include <stdlib.h>
| # endif
| #endif
| #ifdef HAVE_STRING_H
| # if !defined STDC_HEADERS && defined HAVE_MEMORY_H
| #  include <memory.h>
| # endif
| # include <string.h>
| #endif
| #ifdef HAVE_STRINGS_H
| # include <strings.h>
| #endif
| #ifdef HAVE_INTTYPES_H
| # include <inttypes.h>
| #endif
| #ifdef HAVE_STDINT_H
| # include <stdint.h>
| #endif
| #ifdef HAVE_UNISTD_H
| # include <unistd.h>
| #endif
| int
| main ()
| {
| static int test_array [1 - 2 * !(((long int) (sizeof (int *))) <= 1)];
| test_array [0] = 0
| 
|   ;
|   return 0;
| }
configure:4807: icc -c -g -O2  conftest.c >&5
conftest.c(54): error: the size of an array must be greater than zero
  static int test_array [1 - 2 * !(((long int) (sizeof (int *))) <= 3)];
                         ^

compilation aborted for conftest.c (code 2)
configure:4814: $? = 2
configure: failed program was:
| /* confdefs.h.  */
| #define PACKAGE_NAME "ESPRESSO"
| #define PACKAGE_TARNAME "espresso"
| #define PACKAGE_VERSION "5.2.0"
| #define PACKAGE_STRING "ESPRESSO 5.2.0"
| #define PACKAGE_BUGREPORT ""
| #define STDC_HEADERS 1
| #define HAVE_SYS_TYPES_H 1
| #define HAVE_SYS_STAT_H 1
| #define HAVE_STDLIB_H 1
| #define HAVE_STRING_H 1
| #define HAVE_MEMORY_H 1
| #define HAVE_STRINGS_H 1
| #define HAVE_INTTYPES_H 1
| #define HAVE_STDINT_H 1
| #define HAVE_UNISTD_H 1
| /* end confdefs.h.  */
| #include <stdio.h>
| #ifdef HAVE_SYS_TYPES_H
| # include <sys/types.h>
| #endif
| #ifdef HAVE_SYS_STAT_H
| # include <sys/stat.h>
| #endif
| #ifdef STDC_HEADERS
| # include <stdlib.h>
| # include <stddef.h>
| #else
| # ifdef HAVE_STDLIB_H
| #  include <stdlib.h>
| # endif
| #endif
| #ifdef HAVE_STRING_H
| # if !defined STDC_HEADERS && defined HAVE_MEMORY_H
| #  include <memory.h>
| # endif
| # include <string.h>
| #endif
| #ifdef HAVE_STRINGS_H
| # include <strings.h>
| #endif
| #ifdef HAVE_INTTYPES_H
| # include <inttypes.h>
| #endif
| #ifdef HAVE_STDINT_H
| # include <stdint.h>
| #endif
| #ifdef HAVE_UNISTD_H
| # include <unistd.h>
| #endif
| int
| main ()
| {
| static int test_array [1 - 2 * !(((long int) (sizeof (int *))) <= 3)];
| test_array [0] = 0
| 
|   ;
|   return 0;
| }
configure:4807: icc -c -g -O2  conftest.c >&5
conftest.c(54): error: the size of an array must be greater than zero
  static int test_array [1 - 2 * !(((long int) (sizeof (int *))) <= 7)];
                         ^

compilation aborted for conftest.c (code 2)
configure:4814: $? = 2
configure: failed program was:
| /* confdefs.h.  */
| #define PACKAGE_NAME "ESPRESSO"
| #define PACKAGE_TARNAME "espresso"
| #define PACKAGE_VERSION "5.2.0"
| #define PACKAGE_STRING "ESPRESSO 5.2.0"
| #define PACKAGE_BUGREPORT ""
| #define STDC_HEADERS 1
| #define HAVE_SYS_TYPES_H 1
| #define HAVE_SYS_STAT_H 1
| #define HAVE_STDLIB_H 1
| #define HAVE_STRING_H 1
| #define HAVE_MEMORY_H 1
| #define HAVE_STRINGS_H 1
| #define HAVE_INTTYPES_H 1
| #define HAVE_STDINT_H 1
| #define HAVE_UNISTD_H 1
| /* end confdefs.h.  */
| #include <stdio.h>
| #ifdef HAVE_SYS_TYPES_H
| # include <sys/types.h>
| #endif
| #ifdef HAVE_SYS_STAT_H
| # include <sys/stat.h>
| #endif
| #ifdef STDC_HEADERS
| # include <stdlib.h>
| # include <stddef.h>
| #else
| # ifdef HAVE_STDLIB_H
| #  include <stdlib.h>
| # endif
| #endif
| #ifdef HAVE_STRING_H
| # if !defined STDC_HEADERS && defined HAVE_MEMORY_H
| #  include <memory.h>
| # endif
| # include <string.h>
| #endif
| #ifdef HAVE_STRINGS_H
| # include <strings.h>
| #endif
| #ifdef HAVE_INTTYPES_H
| # include <inttypes.h>
| #endif
| #ifdef HAVE_STDINT_H
| # include <stdint.h>
| #endif
| #ifdef HAVE_UNISTD_H
| # include <unistd.h>
| #endif
| int
| main ()
| {
| static int test_array [1 - 2 * !(((long int) (sizeof (int *))) <= 7)];
| test_array [0] = 0
| 
|   ;
|   return 0;
| }
configure:4807: icc -c -g -O2  conftest.c >&5
configure:4814: $? = 0
configure:4962: icc -c -g -O2  conftest.c >&5
configure:4969: $? = 0
configure:4962: icc -c -g -O2  conftest.c >&5
configure:4969: $? = 0
configure:4962: icc -c -g -O2  conftest.c >&5
configure:4969: $? = 0
configure:5085: result: 8
configure:5111: checking malloc.h usability
configure:5128: icc -c -g -O2  conftest.c >&5
configure:5135: $? = 0
configure:5149: result: yes
configure:5153: checking malloc.h presence
configure:5168: icc -E  conftest.c
configure:5175: $? = 0
configure:5189: result: yes
configure:5217: checking for malloc.h
configure:5224: result: yes
configure:5237: checking for struct mallinfo.arena
configure:5266: icc -c -g -O2  conftest.c >&5
configure:5273: $? = 0
configure:5332: result: yes
configure:5399: checking for ifort
configure:5415: found /ssoft/intel/15.0.0/RH6/all/x86_E5v2/composer_xe_2015.2.164/bin/intel64/ifort
configure:5426: result: ifort
configure:5452: checking for Fortran 77 compiler version
configure:5460: ifort --version >&5
ifort (IFORT) 15.0.2 20150121
Copyright (C) 1985-2015 Intel Corporation.  All rights reserved.

configure:5464: $? = 0
configure:5471: ifort -v >&5
ifort version 15.0.2
configure:5475: $? = 0
configure:5482: ifort -V >&5
Intel(R) Fortran Intel(R) 64 Compiler XE for applications running on Intel(R) 64, Version 15.0.2.164 Build 20150121
Copyright (C) 1985-2015 Intel Corporation.  All rights reserved.

configure:5486: $? = 0
configure:5494: checking whether we are using the GNU Fortran 77 compiler
configure:5513: ifort -c  conftest.F >&5
conftest.F(3): error #5082: Syntax error, found END-OF-STATEMENT when expecting one of: ( % [ : . = =>
       choke me
---------------^
conftest.F(3): error #6218: This statement is positioned incorrectly and/or has syntax errors.
       choke me
---------------^
compilation aborted for conftest.F (code 1)
configure:5520: $? = 1
configure: failed program was:
|       program main
| #ifndef __GNUC__
|        choke me
| #endif
| 
|       end
configure:5537: result: no
configure:5543: checking whether ifort accepts -g
configure:5560: ifort -c -g conftest.f >&5
configure:5567: $? = 0
configure:5583: result: yes
configure:5951: checking whether make sets $(MAKE)
configure:5973: result: yes
configure:6014: checking how to get verbose linking output from ifort
configure:6030: ifort -c -g conftest.f >&5
configure:6037: $? = 0
configure:6059: ifort -o conftest -g -v conftest.f
ifort version 15.0.2
/ssoft/intel/15.0.0/RH6/all/x86_E5v2/composer_xe_2015.2.164/bin/intel64/fortcom    -D__INTEL_COMPILER=1500 -D__INTEL_COMPILER_UPDATE=2 -D__unix__ -D__unix -D__linux__ -D__linux -D__gnu_linux__ -Dunix -Dlinux -D__ELF__ -D__x86_64 -D__x86_64__ -D__amd64 -D__amd64__ -D_MT -D__INTEL_COMPILER_BUILD_DATE=20150121 -D__INTEL_OFFLOAD -D__i686 -D__i686__ -D__pentiumpro -D__pentiumpro__ -D__pentium4 -D__pentium4__ -D__tune_pentium4__ -D__SSE2__ -D__SSE2_MATH__ -D__SSE__ -D__SSE_MATH__ -D__MMX__ -mGLOB_pack_sort_init_list -I. -I/ssoft/intel/15.0.0/RH6/all/x86_E5v2/composer_xe_2015.2.164/compiler/include/intel64 -I/ssoft/intel/15.0.0/RH6/all/x86_E5v2/composer_xe_2015.2.164/compiler/include -I/usr/local/include -I/usr/lib/gcc/x86_64-redhat-linux/4.4.7/include -I/usr/include/ -I/usr/include "-fp_modbits honor_f32_conversion" "-fp_modbits honor_f64_conversion" -O0 -g2 -simd -offload_host -mP1OPT_version=15.0-intel64 -mGLOB_diag_file=/tmp/ifortgWjfuB.diag -mGLOB_source_language=GLOB_SOURCE_LANGUAGE_F90 -mP2OPT_static_promotion -mP1OPT_print_version=FALSE -mCG_use_gas_got_workaround=F -mP2OPT_align_option_used=TRUE -mGLOB_gcc_version=447 "-mGLOB_options_string=-o conftest -g -v" -mGLOB_cxx_limited_range=FALSE -mCG_extend_parms=FALSE -mGLOB_compiler_bin_directory=/ssoft/intel/15.0.0/RH6/all/x86_E5v2/composer_xe_2015.2.164/bin/intel64 -mP3OPT_emit_line_numbers -mP2OPT_suppress_unreferenced_locals=FALSE -mGLOB_debug_target=GLOB_DEBUG_TARGET_ALL -mDEBUG_info_level=2 -mDEBUG_use_indirect_strings=TRUE -mGLOB_debug_format=GLOB_DEBUG_FORMAT_DWARF30 -mGLOB_as_output_backup_file_name=/tmp/ifortuyvlOmas_.s -mGLOB_em64t -mGLOB_instruction_tuning=0x0 -mGLOB_product_id_code=0x22006d8f -mGLOB_maintain_errno -mGLOB_noinline_intrinsics -mGLOB_use_base_pointer -mCG_bnl_movbe=T -mGLOB_extended_instructions=0x8 -mP3OPT_use_mspp_call_convention -mP2OPT_subs_out_of_bound=FALSE -mGLOB_ansi_alias -mIPOPT_ninl_limit=0 -mIPOPT_ninl_user_level=0 -mPGOPTI_value_profile_use=T -mGLOB_opt_report_use_source_name -mP2OPT_gen_linux_const_pooling=FALSE -mP2OPT_il0_array_sections=TRUE -mGLOB_offload_mode=1 -mP2OPT_offload_unique_var_string=ifort010290067394ErbHuy -mGLOB_opt_level=0 -mIPOPT_args_in_regs=0 -mP2OPT_disam_assume_nonstd_intent_in=FALSE -mGLOB_imf_mapping_library=/ssoft/intel/15.0.0/RH6/all/x86_E5v2/composer_xe_2015.2.164/bin/intel64/libiml_attr.so -mIPOPT_single_file_compile_and_link=TRUE -mP2OPT_hlo_embed_loopinfo -mPGOPTI_gen_threadsafe_level=0 -mIPOPT_obj_output_file_name=/tmp/ifortgWjfuB.o -mIPOPT_whole_archive_fixup_file_name=/tmp/ifortwarchUZ8w97 -mGLOB_linker_version=2.20.51.0.2 -mGLOB_long_size_64 -mGLOB_routine_pointer_size_64 -mGLOB_driver_tempfile_name=/tmp/iforttempfilea0PoP0 -mP3OPT_asm_target=P3OPT_ASM_TARGET_GAS -mGLOB_async_unwind_tables=TRUE -mGLOB_obj_output_file=/tmp/ifortgWjfuB.o -mGLOB_source_dialect=GLOB_SOURCE_DIALECT_FORTRAN -mP1OPT_source_file_name=conftest.f -mP2OPT_symtab_type_copy=true conftest.f
#include "..." search starts here:
#include <...> search starts here:
 .
 /ssoft/intel/15.0.0/RH6/all/x86_E5v2/composer_xe_2015.2.164/compiler/include/intel64
 /ssoft/intel/15.0.0/RH6/all/x86_E5v2/composer_xe_2015.2.164/compiler/include
 /usr/local/include
 /usr/lib/gcc/x86_64-redhat-linux/4.4.7/include
 /usr/include/
 /usr/include
End of search list.
ld    /usr/lib/gcc/x86_64-redhat-linux/4.4.7/../../../../lib64/crt1.o /usr/lib/gcc/x86_64-redhat-linux/4.4.7/../../../../lib64/crti.o /usr/lib/gcc/x86_64-redhat-linux/4.4.7/crtbegin.o --eh-frame-hdr --build-id -dynamic-linker /lib64/ld-linux-x86-64.so.2 -m elf_x86_64 -o conftest /ssoft/intel/15.0.0/RH6/all/x86_E5v2/composer_xe_2015.2.164/compiler/lib/intel64/for_main.o -L/ssoft/intel/15.0.0/RH6/all/x86_E5v2/composer_xe_2015.2.164/compiler/lib/intel64 -L/usr/lib/gcc/x86_64-redhat-linux/4.4.7/ -L/usr/lib/gcc/x86_64-redhat-linux/4.4.7/../../../../lib64 -L/usr/lib/gcc/x86_64-redhat-linux/4.4.7/../../../../lib64/ -L/lib/../lib64 -L/lib/../lib64/ -L/usr/lib/../lib64 -L/usr/lib/../lib64/ -L/usr/lib/gcc/x86_64-redhat-linux/4.4.7/../../../ -L/lib64 -L/lib/ -L/usr/lib64 -L/usr/lib /tmp/ifortgWjfuB.o -Bdynamic -Bstatic -lifport -lifcore -limf -lsvml -Bdynamic -lm -Bstatic -lipgo -lirc -Bdynamic -lpthread -Bstatic -lsvml -Bdynamic -lc -lgcc -lgcc_s -Bstatic -lirc_s -Bdynamic -ldl -lc /usr/lib/gcc/x86_64-redhat-linux/4.4.7/crtend.o /usr/lib/gcc/x86_64-redhat-linux/4.4.7/../../../../lib64/crtn.o
configure:6128: result: -v
configure:6130: checking for Fortran 77 libraries of ifort
configure:6153: ifort -o conftest -g -v conftest.f
ifort version 15.0.2
/ssoft/intel/15.0.0/RH6/all/x86_E5v2/composer_xe_2015.2.164/bin/intel64/fortcom    -D__INTEL_COMPILER=1500 -D__INTEL_COMPILER_UPDATE=2 -D__unix__ -D__unix -D__linux__ -D__linux -D__gnu_linux__ -Dunix -Dlinux -D__ELF__ -D__x86_64 -D__x86_64__ -D__amd64 -D__amd64__ -D_MT -D__INTEL_COMPILER_BUILD_DATE=20150121 -D__INTEL_OFFLOAD -D__i686 -D__i686__ -D__pentiumpro -D__pentiumpro__ -D__pentium4 -D__pentium4__ -D__tune_pentium4__ -D__SSE2__ -D__SSE2_MATH__ -D__SSE__ -D__SSE_MATH__ -D__MMX__ -mGLOB_pack_sort_init_list -I. -I/ssoft/intel/15.0.0/RH6/all/x86_E5v2/composer_xe_2015.2.164/compiler/include/intel64 -I/ssoft/intel/15.0.0/RH6/all/x86_E5v2/composer_xe_2015.2.164/compiler/include -I/usr/local/include -I/usr/lib/gcc/x86_64-redhat-linux/4.4.7/include -I/usr/include/ -I/usr/include "-fp_modbits honor_f32_conversion" "-fp_modbits honor_f64_conversion" -O0 -g2 -simd -offload_host -mP1OPT_version=15.0-intel64 -mGLOB_diag_file=/tmp/ifortzPG3j8.diag -mGLOB_source_language=GLOB_SOURCE_LANGUAGE_F90 -mP2OPT_static_promotion -mP1OPT_print_version=FALSE -mCG_use_gas_got_workaround=F -mP2OPT_align_option_used=TRUE -mGLOB_gcc_version=447 "-mGLOB_options_string=-o conftest -g -v" -mGLOB_cxx_limited_range=FALSE -mCG_extend_parms=FALSE -mGLOB_compiler_bin_directory=/ssoft/intel/15.0.0/RH6/all/x86_E5v2/composer_xe_2015.2.164/bin/intel64 -mP3OPT_emit_line_numbers -mP2OPT_suppress_unreferenced_locals=FALSE -mGLOB_debug_target=GLOB_DEBUG_TARGET_ALL -mDEBUG_info_level=2 -mDEBUG_use_indirect_strings=TRUE -mGLOB_debug_format=GLOB_DEBUG_FORMAT_DWARF30 -mGLOB_as_output_backup_file_name=/tmp/iforthXK8zVas_.s -mGLOB_em64t -mGLOB_instruction_tuning=0x0 -mGLOB_product_id_code=0x22006d8f -mGLOB_maintain_errno -mGLOB_noinline_intrinsics -mGLOB_use_base_pointer -mCG_bnl_movbe=T -mGLOB_extended_instructions=0x8 -mP3OPT_use_mspp_call_convention -mP2OPT_subs_out_of_bound=FALSE -mGLOB_ansi_alias -mIPOPT_ninl_limit=0 -mIPOPT_ninl_user_level=0 -mPGOPTI_value_profile_use=T -mGLOB_opt_report_use_source_name -mP2OPT_gen_linux_const_pooling=FALSE -mP2OPT_il0_array_sections=TRUE -mGLOB_offload_mode=1 -mP2OPT_offload_unique_var_string=ifort01014679268297h9zBX -mGLOB_opt_level=0 -mIPOPT_args_in_regs=0 -mP2OPT_disam_assume_nonstd_intent_in=FALSE -mGLOB_imf_mapping_library=/ssoft/intel/15.0.0/RH6/all/x86_E5v2/composer_xe_2015.2.164/bin/intel64/libiml_attr.so -mIPOPT_single_file_compile_and_link=TRUE -mP2OPT_hlo_embed_loopinfo -mPGOPTI_gen_threadsafe_level=0 -mIPOPT_obj_output_file_name=/tmp/ifortzPG3j8.o -mIPOPT_whole_archive_fixup_file_name=/tmp/ifortwarch37AkRI -mGLOB_linker_version=2.20.51.0.2 -mGLOB_long_size_64 -mGLOB_routine_pointer_size_64 -mGLOB_driver_tempfile_name=/tmp/iforttempfiley9UcvC -mP3OPT_asm_target=P3OPT_ASM_TARGET_GAS -mGLOB_async_unwind_tables=TRUE -mGLOB_obj_output_file=/tmp/ifortzPG3j8.o -mGLOB_source_dialect=GLOB_SOURCE_DIALECT_FORTRAN -mP1OPT_source_file_name=conftest.f -mP2OPT_symtab_type_copy=true conftest.f
#include "..." search starts here:
#include <...> search starts here:
 .
 /ssoft/intel/15.0.0/RH6/all/x86_E5v2/composer_xe_2015.2.164/compiler/include/intel64
 /ssoft/intel/15.0.0/RH6/all/x86_E5v2/composer_xe_2015.2.164/compiler/include
 /usr/local/include
 /usr/lib/gcc/x86_64-redhat-linux/4.4.7/include
 /usr/include/
 /usr/include
End of search list.
ld    /usr/lib/gcc/x86_64-redhat-linux/4.4.7/../../../../lib64/crt1.o /usr/lib/gcc/x86_64-redhat-linux/4.4.7/../../../../lib64/crti.o /usr/lib/gcc/x86_64-redhat-linux/4.4.7/crtbegin.o --eh-frame-hdr --build-id -dynamic-linker /lib64/ld-linux-x86-64.so.2 -m elf_x86_64 -o conftest /ssoft/intel/15.0.0/RH6/all/x86_E5v2/composer_xe_2015.2.164/compiler/lib/intel64/for_main.o -L/ssoft/intel/15.0.0/RH6/all/x86_E5v2/composer_xe_2015.2.164/compiler/lib/intel64 -L/usr/lib/gcc/x86_64-redhat-linux/4.4.7/ -L/usr/lib/gcc/x86_64-redhat-linux/4.4.7/../../../../lib64 -L/usr/lib/gcc/x86_64-redhat-linux/4.4.7/../../../../lib64/ -L/lib/../lib64 -L/lib/../lib64/ -L/usr/lib/../lib64 -L/usr/lib/../lib64/ -L/usr/lib/gcc/x86_64-redhat-linux/4.4.7/../../../ -L/lib64 -L/lib/ -L/usr/lib64 -L/usr/lib /tmp/ifortzPG3j8.o -Bdynamic -Bstatic -lifport -lifcore -limf -lsvml -Bdynamic -lm -Bstatic -lipgo -lirc -Bdynamic -lpthread -Bstatic -lsvml -Bdynamic -lc -lgcc -lgcc_s -Bstatic -lirc_s -Bdynamic -ldl -lc /usr/lib/gcc/x86_64-redhat-linux/4.4.7/crtend.o /usr/lib/gcc/x86_64-redhat-linux/4.4.7/../../../../lib64/crtn.o
configure:6330: result:  -L/ssoft/intel/15.0.0/RH6/all/x86_E5v2/composer_xe_2015.2.164/compiler/lib/intel64 -L/usr/lib/gcc/x86_64-redhat-linux/4.4.7/ -L/usr/lib/gcc/x86_64-redhat-linux/4.4.7/../../../../lib64 -L/usr/lib/gcc/x86_64-redhat-linux/4.4.7/../../../../lib64/ -L/lib/../lib64 -L/lib/../lib64/ -L/usr/lib/../lib64 -L/usr/lib/../lib64/ -L/usr/lib/gcc/x86_64-redhat-linux/4.4.7/../../../ -L/lib64 -L/lib/ -L/usr/lib64 -L/usr/lib -lifport -lifcore -limf -lsvml -lm -lipgo -lirc -lpthread -lirc_s -ldl
configure:6346: checking for dummy main to link with Fortran 77 libraries
configure:6390: icc -o conftest -g -O2   conftest.c   -L/ssoft/intel/15.0.0/RH6/all/x86_E5v2/composer_xe_2015.2.164/compiler/lib/intel64 -L/usr/lib/gcc/x86_64-redhat-linux/4.4.7/ -L/usr/lib/gcc/x86_64-redhat-linux/4.4.7/../../../../lib64 -L/usr/lib/gcc/x86_64-redhat-linux/4.4.7/../../../../lib64/ -L/lib/../lib64 -L/lib/../lib64/ -L/usr/lib/../lib64 -L/usr/lib/../lib64/ -L/usr/lib/gcc/x86_64-redhat-linux/4.4.7/../../../ -L/lib64 -L/lib/ -L/usr/lib64 -L/usr/lib -lifport -lifcore -limf -lsvml -lm -lipgo -lirc -lpthread -lirc_s -ldl >&5
configure:6397: $? = 0
configure:6485: result: none
configure:6524: checking for Fortran 77 name-mangling scheme
configure:6543: ifort -c -g conftest.f >&5
configure:6550: $? = 0
configure:6605: icc -o conftest -g -O2   conftest.c cfortran_test.o   -L/ssoft/intel/15.0.0/RH6/all/x86_E5v2/composer_xe_2015.2.164/compiler/lib/intel64 -L/usr/lib/gcc/x86_64-redhat-linux/4.4.7/ -L/usr/lib/gcc/x86_64-redhat-linux/4.4.7/../../../../lib64 -L/usr/lib/gcc/x86_64-redhat-linux/4.4.7/../../../../lib64/ -L/lib/../lib64 -L/lib/../lib64/ -L/usr/lib/../lib64 -L/usr/lib/../lib64/ -L/usr/lib/gcc/x86_64-redhat-linux/4.4.7/../../../ -L/lib64 -L/lib/ -L/usr/lib64 -L/usr/lib -lifport -lifcore -limf -lsvml -lm -lipgo -lirc -lpthread -lirc_s -ldl >&5
/tmp/icc15zYJp.o: In function `main':
/scratch/scitas/nvarini/espresso_adios/conftest.c:39: undefined reference to `foobar'
configure:6612: $? = 1
configure: failed program was:
| /* confdefs.h.  */
| #define PACKAGE_NAME "ESPRESSO"
| #define PACKAGE_TARNAME "espresso"
| #define PACKAGE_VERSION "5.2.0"
| #define PACKAGE_STRING "ESPRESSO 5.2.0"
| #define PACKAGE_BUGREPORT ""
| #define STDC_HEADERS 1
| #define HAVE_SYS_TYPES_H 1
| #define HAVE_SYS_STAT_H 1
| #define HAVE_STDLIB_H 1
| #define HAVE_STRING_H 1
| #define HAVE_MEMORY_H 1
| #define HAVE_STRINGS_H 1
| #define HAVE_INTTYPES_H 1
| #define HAVE_STDINT_H 1
| #define HAVE_UNISTD_H 1
| #define SIZEOF_INT_P 8
| #define HAVE_MALLINFO 1
| /* end confdefs.h.  */
| 
| /* Override any GCC internal prototype to avoid an error.
|    Use char because int might match the return type of a GCC
|    builtin and then its argument prototype would still apply.  */
| #ifdef __cplusplus
| extern "C"
| #endif
| char foobar ();
| #ifdef F77_DUMMY_MAIN
| 
| #  ifdef __cplusplus
|      extern "C"
| #  endif
|    int F77_DUMMY_MAIN() { return 1; }
| 
| #endif
| int
| main ()
| {
| return foobar ();
|   ;
|   return 0;
| }
configure:6605: icc -o conftest -g -O2   conftest.c cfortran_test.o   -L/ssoft/intel/15.0.0/RH6/all/x86_E5v2/composer_xe_2015.2.164/compiler/lib/intel64 -L/usr/lib/gcc/x86_64-redhat-linux/4.4.7/ -L/usr/lib/gcc/x86_64-redhat-linux/4.4.7/../../../../lib64 -L/usr/lib/gcc/x86_64-redhat-linux/4.4.7/../../../../lib64/ -L/lib/../lib64 -L/lib/../lib64/ -L/usr/lib/../lib64 -L/usr/lib/../lib64/ -L/usr/lib/gcc/x86_64-redhat-linux/4.4.7/../../../ -L/lib64 -L/lib/ -L/usr/lib64 -L/usr/lib -lifport -lifcore -limf -lsvml -lm -lipgo -lirc -lpthread -lirc_s -ldl >&5
configure:6612: $? = 0
configure:6694: icc -o conftest -g -O2   conftest.c cfortran_test.o   -L/ssoft/intel/15.0.0/RH6/all/x86_E5v2/composer_xe_2015.2.164/compiler/lib/intel64 -L/usr/lib/gcc/x86_64-redhat-linux/4.4.7/ -L/usr/lib/gcc/x86_64-redhat-linux/4.4.7/../../../../lib64 -L/usr/lib/gcc/x86_64-redhat-linux/4.4.7/../../../../lib64/ -L/lib/../lib64 -L/lib/../lib64/ -L/usr/lib/../lib64 -L/usr/lib/../lib64/ -L/usr/lib/gcc/x86_64-redhat-linux/4.4.7/../../../ -L/lib64 -L/lib/ -L/usr/lib64 -L/usr/lib -lifport -lifcore -limf -lsvml -lm -lipgo -lirc -lpthread -lirc_s -ldl >&5
configure:6701: $? = 0
configure:6764: result: lower case, underscore, no extra underscore
configure:8105: checking for library containing dgemm
configure:8129: ifort -o conftest -O2 -assume byterecl -g -traceback -openmp  -nomodule -openmp -static-intel -openmp   conftest.f  >&5
/tmp/ifortoPtUcp.o: In function `main':
/scratch/scitas/nvarini/espresso_adios/conftest.f:2: undefined reference to `dgemm_'
configure:8136: $? = 1
configure: failed program was:
|       program main
|       call dgemm
|       end
configure:8129: ifort -o conftest -O2 -assume byterecl -g -traceback -openmp  -nomodule -openmp -static-intel -openmp   conftest.f -lmkl_intel_lp64 -lmkl_sequential -lmkl_core  >&5
ld: cannot find -lmkl_intel_lp64
configure:8136: $? = 1
configure: failed program was:
|       program main
|       call dgemm
|       end
configure:8167: result: no
configure:8105: checking for library containing dgemm
configure:8129: ifort -o conftest -O2 -assume byterecl -g -traceback -openmp  -nomodule -openmp -static-intel -openmp -L/opt/intel/composer*/mkl/lib/intel64 conftest.f  >&5
/tmp/ifortAcfqqp.o: In function `main':
/scratch/scitas/nvarini/espresso_adios/conftest.f:2: undefined reference to `dgemm_'
configure:8136: $? = 1
configure: failed program was:
|       program main
|       call dgemm
|       end
configure:8129: ifort -o conftest -O2 -assume byterecl -g -traceback -openmp  -nomodule -openmp -static-intel -openmp -L/opt/intel/composer*/mkl/lib/intel64 conftest.f -lmkl_intel_lp64 -lmkl_sequential -lmkl_core  >&5
ld: cannot find -lmkl_intel_lp64
configure:8136: $? = 1
configure: failed program was:
|       program main
|       call dgemm
|       end
configure:8167: result: no
configure:8105: checking for library containing dgemm
configure:8129: ifort -o conftest -O2 -assume byterecl -g -traceback -openmp  -nomodule -openmp -static-intel -openmp -L/opt/intel/Compiler/*/*/mkl/lib/em64t conftest.f  >&5
/tmp/ifortpuUphq.o: In function `main':
/scratch/scitas/nvarini/espresso_adios/conftest.f:2: undefined reference to `dgemm_'
configure:8136: $? = 1
configure: failed program was:
|       program main
|       call dgemm
|       end
configure:8129: ifort -o conftest -O2 -assume byterecl -g -traceback -openmp  -nomodule -openmp -static-intel -openmp -L/opt/intel/Compiler/*/*/mkl/lib/em64t conftest.f -lmkl_intel_lp64 -lmkl_sequential -lmkl_core  >&5
ld: cannot find -lmkl_intel_lp64
configure:8136: $? = 1
configure: failed program was:
|       program main
|       call dgemm
|       end
configure:8167: result: no
configure:8105: checking for library containing dgemm
configure:8129: ifort -o conftest -O2 -assume byterecl -g -traceback -openmp  -nomodule -openmp -static-intel -openmp -L/opt/intel/mkl/*/lib/em64t conftest.f  >&5
/tmp/ifortnec5jx.o: In function `main':
/scratch/scitas/nvarini/espresso_adios/conftest.f:2: undefined reference to `dgemm_'
configure:8136: $? = 1
configure: failed program was:
|       program main
|       call dgemm
|       end
configure:8129: ifort -o conftest -O2 -assume byterecl -g -traceback -openmp  -nomodule -openmp -static-intel -openmp -L/opt/intel/mkl/*/lib/em64t conftest.f -lmkl_intel_lp64 -lmkl_sequential -lmkl_core  >&5
ld: cannot find -lmkl_intel_lp64
configure:8136: $? = 1
configure: failed program was:
|       program main
|       call dgemm
|       end
configure:8167: result: no
configure:8105: checking for library containing dgemm
configure:8129: ifort -o conftest -O2 -assume byterecl -g -traceback -openmp  -nomodule -openmp -static-intel -openmp -L/opt/intel/mkl*/lib/em64t conftest.f  >&5
/tmp/ifort4sNZmu.o: In function `main':
/scratch/scitas/nvarini/espresso_adios/conftest.f:2: undefined reference to `dgemm_'
configure:8136: $? = 1
configure: failed program was:
|       program main
|       call dgemm
|       end
configure:8129: ifort -o conftest -O2 -assume byterecl -g -traceback -openmp  -nomodule -openmp -static-intel -openmp -L/opt/intel/mkl*/lib/em64t conftest.f -lmkl_intel_lp64 -lmkl_sequential -lmkl_core  >&5
ld: cannot find -lmkl_intel_lp64
configure:8136: $? = 1
configure: failed program was:
|       program main
|       call dgemm
|       end
configure:8167: result: no
configure:8105: checking for library containing dgemm
configure:8129: ifort -o conftest -O2 -assume byterecl -g -traceback -openmp  -nomodule -openmp -static-intel -openmp -L/opt/intel/mkl/lib conftest.f  >&5
/tmp/ifort43xebr.o: In function `main':
/scratch/scitas/nvarini/espresso_adios/conftest.f:2: undefined reference to `dgemm_'
configure:8136: $? = 1
configure: failed program was:
|       program main
|       call dgemm
|       end
configure:8129: ifort -o conftest -O2 -assume byterecl -g -traceback -openmp  -nomodule -openmp -static-intel -openmp -L/opt/intel/mkl/lib conftest.f -lmkl_intel_lp64 -lmkl_sequential -lmkl_core  >&5
ld: cannot find -lmkl_intel_lp64
configure:8136: $? = 1
configure: failed program was:
|       program main
|       call dgemm
|       end
configure:8167: result: no
configure:8105: checking for library containing dgemm
configure:8129: ifort -o conftest -O2 -assume byterecl -g -traceback -openmp  -nomodule -openmp -static-intel -openmp -L/ssoft/intelmpi/5.0.1/RH6/all/x86_E5v2/impi/5.0.1.035/lib64/ conftest.f  >&5
/tmp/ifortV8dCrn.o: In function `main':
/scratch/scitas/nvarini/espresso_adios/conftest.f:2: undefined reference to `dgemm_'
configure:8136: $? = 1
configure: failed program was:
|       program main
|       call dgemm
|       end
configure:8129: ifort -o conftest -O2 -assume byterecl -g -traceback -openmp  -nomodule -openmp -static-intel -openmp -L/ssoft/intelmpi/5.0.1/RH6/all/x86_E5v2/impi/5.0.1.035/lib64/ conftest.f -lmkl_intel_lp64 -lmkl_sequential -lmkl_core  >&5
ld: cannot find -lmkl_intel_lp64
configure:8136: $? = 1
configure: failed program was:
|       program main
|       call dgemm
|       end
configure:8167: result: no
configure:8105: checking for library containing dgemm
configure:8129: ifort -o conftest -O2 -assume byterecl -g -traceback -openmp  -nomodule -openmp -static-intel -openmp -L/ssoft/intel/15.0.0/RH6/all/x86_E5v2/composer_xe_2015.2.164/ipp/lib/intel64 conftest.f  >&5
/tmp/ifortH4HF7w.o: In function `main':
/scratch/scitas/nvarini/espresso_adios/conftest.f:2: undefined reference to `dgemm_'
configure:8136: $? = 1
configure: failed program was:
|       program main
|       call dgemm
|       end
configure:8129: ifort -o conftest -O2 -assume byterecl -g -traceback -openmp  -nomodule -openmp -static-intel -openmp -L/ssoft/intel/15.0.0/RH6/all/x86_E5v2/composer_xe_2015.2.164/ipp/lib/intel64 conftest.f -lmkl_intel_lp64 -lmkl_sequential -lmkl_core  >&5
ld: cannot find -lmkl_intel_lp64
configure:8136: $? = 1
configure: failed program was:
|       program main
|       call dgemm
|       end
configure:8167: result: no
configure:8105: checking for library containing dgemm
configure:8129: ifort -o conftest -O2 -assume byterecl -g -traceback -openmp  -nomodule -openmp -static-intel -openmp -L/ssoft/intel/15.0.0/RH6/all/x86_E5v2/composer_xe_2015.2.164/tbb/lib/intel64/gcc4.4 conftest.f  >&5
/tmp/iforta6gGRt.o: In function `main':
/scratch/scitas/nvarini/espresso_adios/conftest.f:2: undefined reference to `dgemm_'
configure:8136: $? = 1
configure: failed program was:
|       program main
|       call dgemm
|       end
configure:8129: ifort -o conftest -O2 -assume byterecl -g -traceback -openmp  -nomodule -openmp -static-intel -openmp -L/ssoft/intel/15.0.0/RH6/all/x86_E5v2/composer_xe_2015.2.164/tbb/lib/intel64/gcc4.4 conftest.f -lmkl_intel_lp64 -lmkl_sequential -lmkl_core  >&5
ld: cannot find -lmkl_intel_lp64
configure:8136: $? = 1
configure: failed program was:
|       program main
|       call dgemm
|       end
configure:8167: result: no
configure:8105: checking for library containing dgemm
configure:8129: ifort -o conftest -O2 -assume byterecl -g -traceback -openmp  -nomodule -openmp -static-intel -openmp -L/ssoft/intel/15.0.0/RH6/all/x86_E5v2/composer_xe_2015.2.164/mkl/lib/intel64 conftest.f  >&5
/tmp/ifort3oVUop.o: In function `main':
/scratch/scitas/nvarini/espresso_adios/conftest.f:2: undefined reference to `dgemm_'
configure:8136: $? = 1
configure: failed program was:
|       program main
|       call dgemm
|       end
configure:8129: ifort -o conftest -O2 -assume byterecl -g -traceback -openmp  -nomodule -openmp -static-intel -openmp -L/ssoft/intel/15.0.0/RH6/all/x86_E5v2/composer_xe_2015.2.164/mkl/lib/intel64 conftest.f -lmkl_intel_lp64 -lmkl_sequential -lmkl_core  >&5
configure:8136: $? = 0
configure:8167: result: -lmkl_intel_lp64
configure:9394: checking for library containing dspev
configure:9418: ifort -o conftest -O2 -assume byterecl -g -traceback -openmp  -nomodule -openmp -static-intel -openmp conftest.f  -L/ssoft/intel/15.0.0/RH6/all/x86_E5v2/composer_xe_2015.2.164/mkl/lib/intel64 -lmkl_intel_lp64  -lmkl_intel_thread -lmkl_core >&5
configure:9425: $? = 0
configure:9456: result: none required
configure:10914: checking for library containing mpi_init
configure:10938: mpiifort -o conftest -O2 -assume byterecl -g -traceback -openmp  -nomodule -openmp -openmp conftest.f  >&5
configure:10945: $? = 0
configure:10976: result: none required
configure:10998: checking for library containing mpi_init
configure:11060: result: none required
configure:11074: checking for library containing pdgemr2d
configure:11098: mpiifort -o conftest -O2 -assume byterecl -g -traceback -openmp  -nomodule -openmp -openmp conftest.f  >&5
/tmp/ifortiK0Rzn.o: In function `main':
/scratch/scitas/nvarini/espresso_adios/conftest.f:2: undefined reference to `pdgemr2d_'
configure:11105: $? = 1
configure: failed program was:
|       program main
|       call pdgemr2d
|       end
configure:11098: mpiifort -o conftest -O2 -assume byterecl -g -traceback -openmp  -nomodule -openmp -openmp conftest.f  >&5
/tmp/ifortta3CtS.o: In function `main':
/scratch/scitas/nvarini/espresso_adios/conftest.f:2: undefined reference to `pdgemr2d_'
configure:11105: $? = 1
configure: failed program was:
|       program main
|       call pdgemr2d
|       end
configure:11136: result: no
configure:11172: checking for library containing pdgemr2d
configure:11196: mpiifort -o conftest -O2 -assume byterecl -g -traceback -openmp  -nomodule -openmp -openmp conftest.f -lmkl_blacs_lp64  -L/ssoft/intel/15.0.0/RH6/all/x86_E5v2/composer_xe_2015.2.164/mkl/lib/intel64 -lmkl_intel_lp64  -lmkl_intel_thread -lmkl_core >&5
/tmp/ifortSuzurA.o: In function `main':
/scratch/scitas/nvarini/espresso_adios/conftest.f:2: undefined reference to `pdgemr2d_'
configure:11203: $? = 1
configure: failed program was:
|       program main
|       call pdgemr2d
|       end
configure:11196: mpiifort -o conftest -O2 -assume byterecl -g -traceback -openmp  -nomodule -openmp -openmp conftest.f -lmkl_scalapack_lp64  -lmkl_blacs_lp64  -L/ssoft/intel/15.0.0/RH6/all/x86_E5v2/composer_xe_2015.2.164/mkl/lib/intel64 -lmkl_intel_lp64  -lmkl_intel_thread -lmkl_core >&5
configure:11203: $? = 0
configure:11234: result: -lmkl_scalapack_lp64
configure:11623: checking for ranlib
configure:11639: found /usr/bin/ranlib
configure:11651: result: ranlib
configure:11672: checking for wget
configure:11688: found /usr/bin/wget
configure:11699: result: wget -O
configure:11949: creating ./config.status

## ---------------------- ##
## Running config.status. ##
## ---------------------- ##

This file was extended by ESPRESSO config.status 5.2.0, which was
generated by GNU Autoconf 2.63.  Invocation command line was

  CONFIG_FILES    = 
  CONFIG_HEADERS  = 
  CONFIG_LINKS    = 
  CONFIG_COMMANDS = 
  $ ./config.status 

on deneb1

config.status:794: creating include/fft_defs.h
config.status:794: creating make.sys
config.status:794: creating configure.msg
config.status:794: creating install/make_wannier90.sys
config.status:794: creating install/make_blas.inc
config.status:794: creating install/make_lapack.inc
config.status:794: creating include/c_defs.h

## ---------------- ##
## Cache variables. ##
## ---------------- ##

ac_cv_build=x86_64-unknown-linux-gnu
ac_cv_c_compiler_gnu=yes
ac_cv_env_CC_set=
ac_cv_env_CC_value=
ac_cv_env_CFLAGS_set=
ac_cv_env_CFLAGS_value=
ac_cv_env_CPPFLAGS_set=
ac_cv_env_CPPFLAGS_value=
ac_cv_env_CPP_set=
ac_cv_env_CPP_value=
ac_cv_env_EXTLIB_FLAGS_set=
ac_cv_env_EXTLIB_FLAGS_value=
ac_cv_env_F77_set=
ac_cv_env_F77_value=
ac_cv_env_FCFLAGS_set=
ac_cv_env_FCFLAGS_value=
ac_cv_env_FC_set=set
ac_cv_env_FC_value=ifort
ac_cv_env_FFLAGS_set=
ac_cv_env_FFLAGS_value=
ac_cv_env_LDFLAGS_set=
ac_cv_env_LDFLAGS_value=
ac_cv_env_LIBS_set=
ac_cv_env_LIBS_value=
ac_cv_env_build_alias_set=
ac_cv_env_build_alias_value=
ac_cv_env_host_alias_set=
ac_cv_env_host_alias_value=
ac_cv_env_target_alias_set=
ac_cv_env_target_alias_value=
ac_cv_f77_compiler_gnu=no
ac_cv_f77_dummy_main=none
ac_cv_f77_libs=' -L/ssoft/intel/15.0.0/RH6/all/x86_E5v2/composer_xe_2015.2.164/compiler/lib/intel64 -L/usr/lib/gcc/x86_64-redhat-linux/4.4.7/ -L/usr/lib/gcc/x86_64-redhat-linux/4.4.7/../../../../lib64 -L/usr/lib/gcc/x86_64-redhat-linux/4.4.7/../../../../lib64/ -L/lib/../lib64 -L/lib/../lib64/ -L/usr/lib/../lib64 -L/usr/lib/../lib64/ -L/usr/lib/gcc/x86_64-redhat-linux/4.4.7/../../../ -L/lib64 -L/lib/ -L/usr/lib64 -L/usr/lib -lifport -lifcore -limf -lsvml -lm -lipgo -lirc -lpthread -lirc_s -ldl'
ac_cv_f77_mangling='lower case, underscore, no extra underscore'
ac_cv_fc_compiler_gnu=no
ac_cv_fc_srcext_f90=none
ac_cv_fortran_dummy_main=none
ac_cv_header_inttypes_h=yes
ac_cv_header_malloc_h=yes
ac_cv_header_memory_h=yes
ac_cv_header_stdc=yes
ac_cv_header_stdint_h=yes
ac_cv_header_stdlib_h=yes
ac_cv_header_string_h=yes
ac_cv_header_strings_h=yes
ac_cv_header_sys_stat_h=yes
ac_cv_header_sys_types_h=yes
ac_cv_header_unistd_h=yes
ac_cv_member_struct_mallinfo_arena=yes
ac_cv_objext=o
ac_cv_path_EGREP='/bin/grep -E'
ac_cv_path_GREP=/bin/grep
ac_cv_prog_CPP='icc -E'
ac_cv_prog_ac_ct_CC=icc
ac_cv_prog_ac_ct_F77=ifort
ac_cv_prog_ac_ct_FC=mpiifort
ac_cv_prog_cc_c89=
ac_cv_prog_cc_g=yes
ac_cv_prog_f77_g=yes
ac_cv_prog_f77_v=-v
ac_cv_prog_fc_g=yes
ac_cv_prog_make_make_set=yes
ac_cv_prog_ranlib=ranlib
ac_cv_prog_wget='wget -O'
ac_cv_search_dgemm=-lmkl_intel_lp64
ac_cv_search_dspev='none required'
ac_cv_search_mpi_init='none required'
ac_cv_search_pdgemr2d=-lmkl_scalapack_lp64
ac_cv_sizeof_int_p=8

## ----------------- ##
## Output variables. ##
## ----------------- ##

CC='icc'
CFLAGS='-g -O2'
CPP='icc -E'
CPPFLAGS=''
Configured for compilation of parallel executables.'
DEFS='-DHAVE_CONFIG_H'
ECHO_C=''
ECHO_N='-n'
ECHO_T=''
EGREP='/bin/grep -E'
EXEEXT=''
EXTLIB_FLAGS=''
F77='mpiifort'
FC='mpiifort'
FCFLAGS='-g'
FCFLAGS_f90=''
FFLAGS='-O2 -assume byterecl -g -traceback -openmp  -nomodule -openmp'
FLIBS=' -L/ssoft/intel/15.0.0/RH6/all/x86_E5v2/composer_xe_2015.2.164/compiler/lib/intel64 -L/usr/lib/gcc/x86_64-redhat-linux/4.4.7/ -L/usr/lib/gcc/x86_64-redhat-linux/4.4.7/../../../../lib64 -L/usr/lib/gcc/x86_64-redhat-linux/4.4.7/../../../../lib64/ -L/lib/../lib64 -L/lib/../lib64/ -L/usr/lib/../lib64 -L/usr/lib/../lib64/ -L/usr/lib/gcc/x86_64-redhat-linux/4.4.7/../../../ -L/lib64 -L/lib/ -L/usr/lib64 -L/usr/lib -lifport -lifcore -limf -lsvml -lm -lipgo -lirc -lpthread -lirc_s -ldl'
GREP='/bin/grep'
LDFLAGS='-openmp'
LIBOBJS=''
LIBS='-lmkl_scalapack_lp64 -lmkl_blacs_lp64  -L/ssoft/intel/15.0.0/RH6/all/x86_E5v2/composer_xe_2015.2.164/mkl/lib/intel64 -lmkl_intel_lp64  -lmkl_intel_thread -lmkl_core'
LTLIBOBJS=''
OBJEXT='o'
PACKAGE_BUGREPORT=''
PACKAGE_NAME='ESPRESSO'
PACKAGE_STRING='ESPRESSO 5.2.0'
PACKAGE_TARNAME='espresso'
PACKAGE_VERSION='5.2.0'
PATH_SEPARATOR=':'
SET_MAKE=''
SHELL='/bin/sh'
SIZEOF_INT_P='8'
ac_ct_CC='icc'
ac_ct_F77='ifort'
ac_ct_FC='mpiifort'
ar='ar'
arflags='ruv'
bindir='${exec_prefix}/bin'
blas_libs='-L/ssoft/intel/15.0.0/RH6/all/x86_E5v2/composer_xe_2015.2.164/mkl/lib/intel64 -lmkl_intel_lp64  -lmkl_intel_thread -lmkl_core'
blas_libs_switch='external'
blas_line='BLAS_LIBS=-L/ssoft/intel/15.0.0/RH6/all/x86_E5v2/composer_xe_2015.2.164/mkl/lib/intel64 -lmkl_intel_lp64  -lmkl_intel_thread -lmkl_core'
build='x86_64-unknown-linux-gnu'
build_alias=''
build_cpu='x86_64'
build_os='linux-gnu'
build_vendor='unknown'
cc='icc'
cflags='-O3'
cpp='cpp'
cppflags='-P -C -traditional'
datadir='${datarootdir}'
datarootdir='${prefix}/share'
dflags=' -D__INTEL -D__FFTW -D__MPI -D__PARA -D__SCALAPACK -D__OPENMP'
docdir='${datarootdir}/doc/${PACKAGE_TARNAME}'
dvidir='${docdir}'
elpa_libs_switch='disabled'
exec_prefix='${prefix}'
extlib_flags=''
f77='ifort'
f90='ifort'
f90flags='$(FFLAGS) -nomodule -openmp'
f90rule='$(MPIF90) $(F90FLAGS) -c $<'
fdflags='$(DFLAGS)'
fflags='-O2 -assume byterecl -g -traceback -openmp'
fflags_nomain='-nofor_main'
fflags_noopt='-O0 -assume byterecl -g -traceback'
fft_libs=''
fft_line='FFT_LIBS='
host_alias=''
htmldir='${docdir}'
iflags='-I../include'
imod='-I'
includedir='${prefix}/include'
infodir='${datarootdir}/info'
lapack_libs=''
lapack_libs_switch='external'
lapack_line='LAPACK_LIBS='
ld='mpiifort'
ld_libs=''
ldflags='-static-intel  -openmp'
libdir='${exec_prefix}/lib'
libexecdir='${exec_prefix}/libexec'
localedir='${datarootdir}/locale'
localstatedir='${prefix}/var'
mandir='${datarootdir}/man'
mass_libs=''
mass_line='@delete@'
mpi_libs=''
mpi_line='@delete@'
mpif90='mpiifort'
oldincludedir='/usr/include'
parallel_report='Parallel environment detected successfully.\
pdfdir='${docdir}'
pre_fdflags='-fpp '
prefix='$(INSTALLDIR)'
program_transform_name='s,x,x,'
psdir='${docdir}'
ranlib='ranlib'
sbindir='${exec_prefix}/sbin'
scalapack_libs='-lmkl_scalapack_lp64 -lmkl_blacs_openmpi_lp64'
scalapack_line='SCALAPACK_LIBS=-lmkl_scalapack_lp64 -lmkl_blacs_openmpi_lp64'
sharedstatedir='${prefix}/com'
sysconfdir='${prefix}/etc'
target_alias=''
topdir='/scratch/scitas/nvarini/espresso_adios'
wget='wget -O'

## ----------- ##
## confdefs.h. ##
## ----------- ##

#define PACKAGE_NAME "ESPRESSO"
#define PACKAGE_TARNAME "espresso"
#define PACKAGE_VERSION "5.2.0"
#define PACKAGE_STRING "ESPRESSO 5.2.0"
#define PACKAGE_BUGREPORT ""
#define STDC_HEADERS 1
#define HAVE_SYS_TYPES_H 1
#define HAVE_SYS_STAT_H 1
#define HAVE_STDLIB_H 1
#define HAVE_STRING_H 1
#define HAVE_MEMORY_H 1
#define HAVE_STRINGS_H 1
#define HAVE_INTTYPES_H 1
#define HAVE_STDINT_H 1
#define HAVE_UNISTD_H 1
#define SIZEOF_INT_P 8
#define HAVE_MALLINFO 1
#define F77_FUNC(name,NAME) name ## _
#define F77_FUNC_(name,NAME) name ## _

configure: exit 0
